[
  {
    "id": 1,
    "title": "Bài viết đầu tiên",
    "thumbnail": null,
    "excerpt": "tóm tắt",
    "content": "Kính chào bà con cư dân gia hoà",
    "category": {
      "id": 1,
      "name": "bau cu"
    },
    "views": 2,
    "keywords": "bầu cử, cư dân, pccc",
    "is_public": true,
    "published_on": "2023-06-17T02:04:37.000Z",
    "published_by" : "alex",
    "modified_on": "2023-06-17T02:04:37.000Z",
    "modified_by" : "alex",
    "created_on": "2023-06-17T02:03:57.000Z",
    "created_by" : "alex"
  },
  {
    "id": 3,
    "title": "sss",
    "thumbnail": "jsjas.com",
    "content": "sjoiaas",
    "category": {
      "id": 1,
      "name": "bau cu"
    },
    "views": 10,
    "is_public": true,
    "modified_on": "2023-06-17T05:06:49.000Z",
    "created_on": "2023-06-17T05:06:49.000Z"
  },
  {
    "id": 4,
    "title": "sss",
    "thumbnail": null,
    "content": "sjoiaas",
    "category": {
      "id": 2,
      "name": "bau c2u"
    },
    "views": 2,
    "is_public": true,
    "modified_on": "2023-06-17T05:07:26.000Z",
    "created_on": "2023-06-17T05:07:26.000Z"
  },
  {
    "id": 5,
    "title": "sss",
    "thumbnail": "jsjas.com",
    "content": "sjoiaas",
    "category": {
      "id": 2,
      "name": "bau c2u"
    },
    "views": 1,
    "is_public": true,
    "modified_on": "2023-06-17T05:07:33.000Z",
    "created_on": "2023-06-17T05:07:33.000Z"
  }
]
